# Region type : patch innerPropellantOutlet16
# Faces         : 36
# Area          : 6.79896137e-04
# Scale factor  : 1.00000000e+00
# Time          	areaAverage(magU)	areaAverage(p)	areaAverage(T)	areaAverage(alphaRhoPhi)	areaAverage(alphaPhi)
1.3             	4.31316290e+02	7.00000000e+06	1.62962849e+03	1.09496801e-02	1.00378484e-02
# Region type : patch innerPropellantOutlet16
# Faces         : 36
# Area          : 6.79896137e-04
# Scale factor  : 1.00000000e+00
# Time          	areaAverage(magU)	areaAverage(p)	areaAverage(T)	areaAverage(alphaRhoPhi)	areaAverage(alphaPhi)
1.4             	5.25228475e+02	7.00000000e+06	1.63615156e+03	1.33485671e-02	1.21802602e-02
