# Field extents 
# Time          
1.17545362e+03# ===           
# Time          
1.60159997e+03# ===           
# Time          
1.72880908e+03# ===           
# Time          
1.77041173e+03# ===           
# Time          
1.78527029e+03# ===           
# Time          
1.79140226e+03# ===           
# Time          
1.79506672e+03# ===           
# Time          
