# Field extents 
# Time          
7.24161492e-01# ===           
# Time          
7.16574957e-01# ===           
# Time          
7.10359024e-01# ===           
# Time          
7.10828398e-01# ===           
# Time          
7.09356310e-01# ===           
# Time          
7.10024784e-01# ===           
# Time          
7.10357641e-01# ===           
# Time          
