# Field extents 
# Time          
6.62985381e-01# ===           
# Time          
6.46828564e-01# ===           
# Time          
6.44361769e-01# ===           
# Time          
6.43603222e-01# ===           
# Time          
6.43386744e-01# ===           
# Time          
6.43522240e-01# ===           
# Time          
6.43372374e-01# ===           
# Time          
