# Field extents 
# Time          
8.25128150e-01# ===           
# Time          
8.19802479e-01# ===           
# Time          
8.13983954e-01# ===           
# Time          
8.14936796e-01# ===           
# Time          
8.13381858e-01# ===           
# Time          
8.14083029e-01# ===           
# Time          
8.14399828e-01# ===           
# Time          
